…
## Problem 2

### Data cleaning and tidying process

``` r
homicide_raw <- read_csv("https://raw.githubusercontent.com/washingtonpost/data-homicides/master/homicide-data.csv") %>% 
  janitor::clean_names() %>%
  mutate(
    state = toupper(state),
    city_state = str_c(city, state, sep = ",") %>% 
    str_replace("Tulsa,AL","Tulsa,OK"))
homicide_raw
```

    ## # A tibble: 52,179 × 13
    ##    uid   repor…¹ victi…² victi…³ victi…⁴ victi…⁵ victi…⁶ city  state   lat   lon
    ##    <chr>   <dbl> <chr>   <chr>   <chr>   <chr>   <chr>   <chr> <chr> <dbl> <dbl>
    ##  1 Alb-…  2.01e7 GARCIA  JUAN    Hispan… 78      Male    Albu… NM     35.1 -107.
    ##  2 Alb-…  2.01e7 MONTOYA CAMERON Hispan… 17      Male    Albu… NM     35.1 -107.
    ##  3 Alb-…  2.01e7 SATTER… VIVIANA White   15      Female  Albu… NM     35.1 -107.
    ##  4 Alb-…  2.01e7 MENDIO… CARLOS  Hispan… 32      Male    Albu… NM     35.1 -107.
    ##  5 Alb-…  2.01e7 MULA    VIVIAN  White   72      Female  Albu… NM     35.1 -107.
    ##  6 Alb-…  2.01e7 BOOK    GERALD… White   91      Female  Albu… NM     35.2 -107.
    ##  7 Alb-…  2.01e7 MALDON… DAVID   Hispan… 52      Male    Albu… NM     35.1 -107.
    ##  8 Alb-…  2.01e7 MALDON… CONNIE  Hispan… 52      Female  Albu… NM     35.1 -107.
    ##  9 Alb-…  2.01e7 MARTIN… GUSTAVO White   56      Male    Albu… NM     35.1 -107.
    ## 10 Alb-…  2.01e7 HERRERA ISRAEL  Hispan… 43      Male    Albu… NM     35.1 -107.
    ## # … with 52,169 more rows, 2 more variables: disposition <chr>,
    ## #   city_state <chr>, and abbreviated variable names ¹​reported_date,
    ## #   ²​victim_last, ³​victim_first, ⁴​victim_race, ⁵​victim_age, ⁶​victim_sex

``` r
homicide_tidy = 
  homicide_raw %>% 
  mutate(
    status = ifelse(disposition != "Closed by arrest", "unsolved", "solved")) %>% 
  group_by(city_state) %>% 
  summarise(n_unsolved = sum(status == "unsolved"),
            n_total = n())

homicide_tidy
```

    ## # A tibble: 50 × 3
    ##    city_state     n_unsolved n_total
    ##    <chr>               <int>   <int>
    ##  1 Albuquerque,NM        146     378
    ##  2 Atlanta,GA            373     973
    ##  3 Baltimore,MD         1825    2827
    ##  4 Baton Rouge,LA        196     424
    ##  5 Birmingham,AL         347     800
    ##  6 Boston,MA             310     614
    ##  7 Buffalo,NY            319     521
    ##  8 Charlotte,NC          206     687
    ##  9 Chicago,IL           4073    5535
    ## 10 Cincinnati,OH         309     694
    ## # … with 40 more rows
…
``` r
homicide_prop = 
  homicide_tidy %>% 
  mutate(prop_homicide = map2(n_unsolved, n_total, ~ prop.test(.x, .y) %>%
      broom::tidy())) %>%
  unnest(prop_homicide) %>%
  select(city_state, estimate, conf.low, conf.high) %>%
  rename(
    lower_limit = conf.low,
    upper_limit = conf.high)

homicide_prop
```

    ## # A tibble: 50 × 4
    ##    city_state     estimate lower_limit upper_limit
    ##    <chr>             <dbl>       <dbl>       <dbl>
    ##  1 Albuquerque,NM    0.386       0.337       0.438
    ##  2 Atlanta,GA        0.383       0.353       0.415
    ##  3 Baltimore,MD      0.646       0.628       0.663
    ##  4 Baton Rouge,LA    0.462       0.414       0.511
    ##  5 Birmingham,AL     0.434       0.399       0.469
    ##  6 Boston,MA         0.505       0.465       0.545
    ##  7 Buffalo,NY        0.612       0.569       0.654
    ##  8 Charlotte,NC      0.300       0.266       0.336
    ##  9 Chicago,IL        0.736       0.724       0.747
    ## 10 Cincinnati,OH     0.445       0.408       0.483
    ## # … with 40 more rows
…
set.seed(1)
sim_df0 = 
  expand_grid(
    mu = 0,
    iterate = 1:5000) %>% 
  mutate(ttest_df = map(.x = mu, ~sim_t_test(mu = .x))) %>% 
  unnest(ttest_df)

sim_df0
```

    ## # A tibble: 5,000 × 4
    ##       mu iterate estimate p.value
    ##    <dbl>   <int>    <dbl>   <dbl>
    ##  1     0       1    0.412  0.629 
    ##  2     0       2    0.664  0.368 
    ##  3     0       3    0.551  0.534 
    ##  4     0       4    0.567  0.487 
    ##  5     0       5   -1.65   0.0599
    ##  6     0       6    1.19   0.229 
    ##  7     0       7    0.334  0.738 
    ##  8     0       8   -1.19   0.209 
    ##  9     0       9    0.122  0.887 
    ## 10     0      10    0.684  0.472 
    ## # … with 4,990 more rows

``` r
sim_df = 
  expand_grid(
    mu = c(1:6),
    iterate = 1:5000) %>% 
  mutate(ttest_df = map(.x = mu, ~sim_t_test(mu = .x))) %>% 
  unnest(ttest_df) %>% 
  rename(p_value = p.value)


sim_df
```

    ## # A tibble: 30,000 × 4
    ##       mu iterate estimate p_value
    ##    <int>   <int>    <dbl>   <dbl>
    ##  1     1       1    1.52   0.0865
    ##  2     1       2    2.11   0.0159
    ##  3     1       3    2.01   0.0183
    ##  4     1       4    0.165  0.839 
    ##  5     1       5    0.108  0.912 
    ##  6     1       6    1.56   0.0682
    ##  7     1       7    2.04   0.0252
    ##  8     1       8    2.40   0.0154
    ##  9     1       9    2.15   0.0154
    ## 10     1      10    0.500  0.634 
    ## # … with 29,990 more rows
…
